%YAML 1.1
%TAG !u! tag:unity3d.com,2011:
--- !u!114 &11400000
MonoBehaviour:
  m_ObjectHideFlags: 0
  m_CorrespondingSourceObject: {fileID: 0}
  m_PrefabInstance: {fileID: 0}
  m_PrefabAsset: {fileID: 0}
  m_GameObject: {fileID: 0}
  m_Enabled: 1
  m_EditorHideFlags: 0
  m_Script: {fileID: 11500000, guid: 3eb84899a8a0f5f4eb41caca9f40953d, type: 3}
  m_Name: Perc Drums1
  m_EditorClassIdentifier: 
  cursorSequences:
  - {fileID: 11400000, guid: 8fb0910a2641281418bdcc7d5aac0cf2, type: 2}
  - {fileID: 11400000, guid: e579ce6e34486d34db9d433849185c91, type: 2}
  - {fileID: 11400000, guid: f82c026424f39394fb073a877c4b0b86, type: 2}
  - {fileID: 11400000, guid: b12e78fb8a4d99c41865282da883c8c5, type: 2}
  - {fileID: 11400000, guid: f410efcf3e1d03c48bf1537604900827, type: 2}
  instrumentName: Perc Drums
  isPercussion: 1
  trackNumber: 0
  pan: 0
