%YAML 1.1
%TAG !u! tag:unity3d.com,2011:
--- !u!114 &11400000
MonoBehaviour:
  m_ObjectHideFlags: 0
  m_CorrespondingSourceObject: {fileID: 0}
  m_PrefabInstance: {fileID: 0}
  m_PrefabAsset: {fileID: 0}
  m_GameObject: {fileID: 0}
  m_Enabled: 1
  m_EditorHideFlags: 0
  m_Script: {fileID: 11500000, guid: 3eb84899a8a0f5f4eb41caca9f40953d, type: 3}
  m_Name: Perc Stingers
  m_EditorClassIdentifier: 
  cursorSequences:
  - {fileID: 11400000, guid: 29a133396dc9e304982259e508d1ddbd, type: 2}
  - {fileID: 11400000, guid: cea756fd85b401d44b39afc01b5d5b56, type: 2}
  - {fileID: 11400000, guid: 1586a919bb4b0034187c8bd2de9c0e34, type: 2}
  - {fileID: 11400000, guid: 7e4ea7fdfd2be7c4eb0e14e7e69074ba, type: 2}
  - {fileID: 11400000, guid: 5be9364211b39384f961254f6eb5b1b5, type: 2}
  instrumentName: Perc Stingers
  isPercussion: 1
  trackNumber: 3
  pan: 0
