%YAML 1.1
%TAG !u! tag:unity3d.com,2011:
--- !u!114 &11400000
MonoBehaviour:
  m_ObjectHideFlags: 0
  m_CorrespondingSourceObject: {fileID: 0}
  m_PrefabInstance: {fileID: 0}
  m_PrefabAsset: {fileID: 0}
  m_GameObject: {fileID: 0}
  m_Enabled: 1
  m_EditorHideFlags: 0
  m_Script: {fileID: 11500000, guid: 3eb84899a8a0f5f4eb41caca9f40953d, type: 3}
  m_Name: Spiccato4
  m_EditorClassIdentifier: 
  cursorSequences:
  - {fileID: 11400000, guid: 600e5f3a01694f143b93e324663ec0bc, type: 2}
  - {fileID: 11400000, guid: 63d7eab81292dfc4a9d60613c0c1d7a3, type: 2}
  instrumentName: Spiccato
  isPercussion: 0
  trackNumber: 12
  pan: 0
