%YAML 1.1
%TAG !u! tag:unity3d.com,2011:
--- !u!114 &11400000
MonoBehaviour:
  m_ObjectHideFlags: 0
  m_CorrespondingSourceObject: {fileID: 0}
  m_PrefabInstance: {fileID: 0}
  m_PrefabAsset: {fileID: 0}
  m_GameObject: {fileID: 0}
  m_Enabled: 1
  m_EditorHideFlags: 0
  m_Script: {fileID: 11500000, guid: 3eb84899a8a0f5f4eb41caca9f40953d, type: 3}
  m_Name: Strings - Long
  m_EditorClassIdentifier: 
  cursorSequences:
  - {fileID: 11400000, guid: 153e2ead36a0db14ba257cd3d3dfb2f1, type: 2}
  - {fileID: 11400000, guid: 73055401c72d7a94b944cd4bb3e5bdd6, type: 2}
  instrumentName: Strings - Long
  isPercussion: 0
  trackNumber: 8
  pan: 0
