%YAML 1.1
%TAG !u! tag:unity3d.com,2011:
--- !u!114 &11400000
MonoBehaviour:
  m_ObjectHideFlags: 0
  m_CorrespondingSourceObject: {fileID: 0}
  m_PrefabInstance: {fileID: 0}
  m_PrefabAsset: {fileID: 0}
  m_GameObject: {fileID: 0}
  m_Enabled: 1
  m_EditorHideFlags: 0
  m_Script: {fileID: 11500000, guid: 3eb84899a8a0f5f4eb41caca9f40953d, type: 3}
  m_Name: Violins 2
  m_EditorClassIdentifier: 
  cursorSequences:
  - {fileID: 11400000, guid: 20c005950588c4140abf29ee101bda22, type: 2}
  - {fileID: 11400000, guid: fc074d50a7b38c042ade33993a29628e, type: 2}
  - {fileID: 11400000, guid: 2495e9d6f436f2b4bb726a8ed440a099, type: 2}
  - {fileID: 11400000, guid: d5dfae5cd206a5e4e91e20b994c96081, type: 2}
  - {fileID: 11400000, guid: b1a35e7ea5d18bc47b933a230cf99451, type: 2}
  instrumentName: 'Violins '
  isPercussion: 0
  trackNumber: 5
  pan: 0
