%YAML 1.1
%TAG !u! tag:unity3d.com,2011:
--- !u!114 &11400000
MonoBehaviour:
  m_ObjectHideFlags: 0
  m_CorrespondingSourceObject: {fileID: 0}
  m_PrefabInstance: {fileID: 0}
  m_PrefabAsset: {fileID: 0}
  m_GameObject: {fileID: 0}
  m_Enabled: 1
  m_EditorHideFlags: 0
  m_Script: {fileID: 11500000, guid: 397a463c804e33b4291f17c00c1476d5, type: 3}
  m_Name: Sword
  m_EditorClassIdentifier: 
  range: 4
  damage: 20
  rarity: 0
  critChance: 0
  critDamageBoost: 0
