%YAML 1.1
%TAG !u! tag:unity3d.com,2011:
--- !u!114 &11400000
MonoBehaviour:
  m_ObjectHideFlags: 0
  m_CorrespondingSourceObject: {fileID: 0}
  m_PrefabInstance: {fileID: 0}
  m_PrefabAsset: {fileID: 0}
  m_GameObject: {fileID: 0}
  m_Enabled: 1
  m_EditorHideFlags: 0
  m_Script: {fileID: 11500000, guid: bdd15de2129234cd6ab89ff661735f1f, type: 3}
  m_Name: Harp52motif harp
  m_EditorClassIdentifier: 
  beatPosition: 80
  beatLength: 0
  minpitch: 0.6692913174629211
  maxpitch: 0.7244094610214233
  trackNumber: 14
  cursorArrayContainer:
  - steps:
    - pos:
      - 0
      - 1
      - 0.7244094610214233
      - 1
      - 122
      - 1
    - pos:
      - 2.85625
      - 1
      - 0.7244094610214233
      - 0
      - 0
      - 1
    - pos:
      - 4
      - 1
      - 0.7086614370346069
      - 1
      - 127
      - 1
    - pos:
      - 5.879166666666666
      - 1
      - 0.7086614370346069
      - 0
      - 0
      - 1
    - pos:
      - 6
      - 1
      - 0.7007874250411987
      - 1
      - 127
      - 1
    - pos:
      - 7.239583333333333
      - 1
      - 0.7007874250411987
      - 0
      - 0
      - 1
    - pos:
      - 8
      - 1
      - 0.6692913174629211
      - 1
      - 125
      - 1
    - pos:
      - 12.610416666666666
      - 1
      - 0.6692913174629211
      - 0
      - 0
      - 1
    - pos:
      - 14
      - 1
      - 0.7007874250411987
      - 1
      - 126
      - 1
    - pos:
      - 15.941666666666666
      - 1
      - 0.7007874250411987
      - 0
      - 0
      - 1
    - pos:
      - 16
      - 1
      - 0.6850393414497375
      - 1
      - 127
      - 1
    - pos:
      - 18.835416666666667
      - 1
      - 0.6850393414497375
      - 0
      - 0
      - 1
