%YAML 1.1
%TAG !u! tag:unity3d.com,2011:
--- !u!114 &11400000
MonoBehaviour:
  m_ObjectHideFlags: 0
  m_CorrespondingSourceObject: {fileID: 0}
  m_PrefabInstance: {fileID: 0}
  m_PrefabAsset: {fileID: 0}
  m_GameObject: {fileID: 0}
  m_Enabled: 1
  m_EditorHideFlags: 0
  m_Script: {fileID: 11500000, guid: bdd15de2129234cd6ab89ff661735f1f, type: 3}
  m_Name: Perc Stingers15Perc 4 untitled MIDI item
  m_EditorClassIdentifier: 
  beatPosition: 192
  beatLength: 0
  minpitch: 0.4724409580230713
  maxpitch: 0.5118110179901123
  trackNumber: 3
  cursorArrayContainer:
  - steps:
    - pos:
      - 0
      - 1
      - 0.4724409580230713
      - 1
      - 96
      - 1
    - pos:
      - 0.3333333333333333
      - 1
      - 0.4960629940032959
      - 1
      - 96
      - 1
    - pos:
      - 0.5
      - 1
      - 0.4724409580230713
      - 0
      - 0
      - 1
    - pos:
      - 0.6666666666666666
      - 1
      - 0.5118110179901123
      - 1
      - 96
      - 1
    - pos:
      - 0.8333333333333333
      - 1
      - 0.4960629940032959
      - 0
      - 0
      - 1
    - pos:
      - 1.1666666666666665
      - 1
      - 0.5118110179901123
      - 0
      - 0
      - 1
