%YAML 1.1
%TAG !u! tag:unity3d.com,2011:
--- !u!114 &11400000
MonoBehaviour:
  m_ObjectHideFlags: 0
  m_CorrespondingSourceObject: {fileID: 0}
  m_PrefabInstance: {fileID: 0}
  m_PrefabAsset: {fileID: 0}
  m_GameObject: {fileID: 0}
  m_Enabled: 1
  m_EditorHideFlags: 0
  m_Script: {fileID: 11500000, guid: bdd15de2129234cd6ab89ff661735f1f, type: 3}
  m_Name: Perc Drums14Percussion 1 - Sparring_withInsertsandAutomation.midi
  m_EditorClassIdentifier: 
  beatPosition: 448
  beatLength: 0
  minpitch: 0.5354330539703369
  maxpitch: 0.5511810779571533
  trackNumber: 0
  cursorArrayContainer:
  - steps:
    - pos:
      - 14.316666666666627
      - 1
      - 0.5354330539703369
      - 1
      - 74
      - 1
    - pos:
      - 14.649999999999961
      - 1
      - 0.5354330539703369
      - 0
      - 0
      - 1
    - pos:
      - 14.649999999999961
      - 1
      - 0.5511810779571533
      - 1
      - 81
      - 1
    - pos:
      - 14.983333333333295
      - 1
      - 0.5354330539703369
      - 1
      - 82
      - 1
    - pos:
      - 14.991666666666628
      - 1
      - 0.5511810779571533
      - 0
      - 0
      - 1
    - pos:
      - 15.302083333333295
      - 1
      - 0.5354330539703369
      - 0
      - 0
      - 1
    - pos:
      - 15.649999999999961
      - 1
      - 0.5354330539703369
      - 1
      - 81
      - 1
    - pos:
      - 15.999999999999961
      - 1
      - 0.5354330539703369
      - 0
      - 0
      - 1
    - pos:
      - 62.316666666666634
      - 1
      - 0.5354330539703369
      - 1
      - 74
      - 1
    - pos:
      - 62.64999999999997
      - 1
      - 0.5354330539703369
      - 0
      - 0
      - 1
    - pos:
      - 62.64999999999997
      - 1
      - 0.5511810779571533
      - 1
      - 81
      - 1
    - pos:
      - 62.983333333333306
      - 1
      - 0.5354330539703369
      - 1
      - 82
      - 1
    - pos:
      - 62.99166666666664
      - 1
      - 0.5511810779571533
      - 0
      - 0
      - 1
    - pos:
      - 63.30208333333331
      - 1
      - 0.5354330539703369
      - 0
      - 0
      - 1
    - pos:
      - 63.64999999999998
      - 1
      - 0.5354330539703369
      - 1
      - 81
      - 1
    - pos:
      - 63.99999999999998
      - 1
      - 0.5354330539703369
      - 0
      - 0
      - 1
    - pos:
      - 110.31666666666665
      - 1
      - 0.5354330539703369
      - 1
      - 74
      - 1
    - pos:
      - 110.64999999999998
      - 1
      - 0.5354330539703369
      - 0
      - 0
      - 1
    - pos:
      - 110.64999999999998
      - 1
      - 0.5511810779571533
      - 1
      - 81
      - 1
    - pos:
      - 110.9833333333333
      - 1
      - 0.5354330539703369
      - 1
      - 82
      - 1
    - pos:
      - 110.99166666666665
      - 1
      - 0.5511810779571533
      - 0
      - 0
      - 1
    - pos:
      - 111.30208333333331
      - 1
      - 0.5354330539703369
      - 0
      - 0
      - 1
    - pos:
      - 111.64999999999998
      - 1
      - 0.5354330539703369
      - 1
      - 81
      - 1
    - pos:
      - 111.99999999999997
      - 1
      - 0.5354330539703369
      - 0
      - 0
      - 1
