%YAML 1.1
%TAG !u! tag:unity3d.com,2011:
--- !u!114 &11400000
MonoBehaviour:
  m_ObjectHideFlags: 0
  m_CorrespondingSourceObject: {fileID: 0}
  m_PrefabInstance: {fileID: 0}
  m_PrefabAsset: {fileID: 0}
  m_GameObject: {fileID: 0}
  m_Enabled: 1
  m_EditorHideFlags: 0
  m_Script: {fileID: 11500000, guid: bdd15de2129234cd6ab89ff661735f1f, type: 3}
  m_Name: Perc Drums12Percussion 1 - Sparring_withInsertsandAutomation.midi
  m_EditorClassIdentifier: 
  beatPosition: 48
  beatLength: 0
  minpitch: 0.5354330539703369
  maxpitch: 0.5511810779571533
  trackNumber: 0
  cursorArrayContainer:
  - steps:
    - pos:
      - 0.016666666666674157
      - 1
      - 0.5354330539703369
      - 0
      - 0
      - 1
    - pos:
      - 14.333333333333341
      - 1
      - 0.5354330539703369
      - 1
      - 74
      - 1
    - pos:
      - 14.666666666666675
      - 1
      - 0.5354330539703369
      - 0
      - 0
      - 1
    - pos:
      - 14.666666666666675
      - 1
      - 0.5511810779571533
      - 1
      - 81
      - 1
    - pos:
      - 15.000000000000009
      - 1
      - 0.5354330539703369
      - 1
      - 82
      - 1
    - pos:
      - 15.008333333333342
      - 1
      - 0.5511810779571533
      - 0
      - 0
      - 1
    - pos:
      - 15.318750000000009
      - 1
      - 0.5354330539703369
      - 0
      - 0
      - 1
    - pos:
      - 15.666666666666675
      - 1
      - 0.5354330539703369
      - 1
      - 81
      - 1
    - pos:
      - 16.000000000000007
      - 1
      - 0.5354330539703369
      - 0
      - 0
      - 1
