%YAML 1.1
%TAG !u! tag:unity3d.com,2011:
--- !u!114 &11400000
MonoBehaviour:
  m_ObjectHideFlags: 0
  m_CorrespondingSourceObject: {fileID: 0}
  m_PrefabInstance: {fileID: 0}
  m_PrefabAsset: {fileID: 0}
  m_GameObject: {fileID: 0}
  m_Enabled: 1
  m_EditorHideFlags: 0
  m_Script: {fileID: 11500000, guid: bdd15de2129234cd6ab89ff661735f1f, type: 3}
  m_Name: Perc Stingers17Perc 4 untitled MIDI item
  m_EditorClassIdentifier: 
  beatPosition: 202
  beatLength: 0
  minpitch: 0.4803149700164795
  maxpitch: 0.5354330539703369
  trackNumber: 3
  cursorArrayContainer:
  - steps:
    - pos:
      - 0
      - 1
      - 0.5118110179901123
      - 1
      - 96
      - 1
    - pos:
      - 0.5
      - 1
      - 0.5118110179901123
      - 0
      - 0
      - 1
    - pos:
      - 0.6666666666666666
      - 1
      - 0.4803149700164795
      - 1
      - 96
      - 1
    - pos:
      - 1
      - 1
      - 0.5354330539703369
      - 1
      - 96
      - 1
    - pos:
      - 1.1666666666666667
      - 1
      - 0.4803149700164795
      - 0
      - 0
      - 1
    - pos:
      - 1.5
      - 1
      - 0.5354330539703369
      - 0
      - 0
      - 1
