%YAML 1.1
%TAG !u! tag:unity3d.com,2011:
--- !u!114 &11400000
MonoBehaviour:
  m_ObjectHideFlags: 0
  m_CorrespondingSourceObject: {fileID: 0}
  m_PrefabInstance: {fileID: 0}
  m_PrefabAsset: {fileID: 0}
  m_GameObject: {fileID: 0}
  m_Enabled: 1
  m_EditorHideFlags: 0
  m_Script: {fileID: 11500000, guid: bdd15de2129234cd6ab89ff661735f1f, type: 3}
  m_Name: Spiccato347Strings - Spiccato - Sparring_withInsertsandAutomation.midi
  m_EditorClassIdentifier: 
  beatPosition: 0
  beatLength: 0
  minpitch: 0.4251968562602997
  maxpitch: 0.4566929042339325
  trackNumber: 11
  cursorArrayContainer:
  - steps:
    - pos:
      - 0
      - 1
      - 0.4566929042339325
      - 1
      - 80
      - 1
    - pos:
      - 0.25625
      - 1
      - 0.4566929042339325
      - 0
      - 0
      - 1
    - pos:
      - 0.6666666666666666
      - 1
      - 0.4409448802471161
      - 1
      - 81
      - 1
    - pos:
      - 0.94375
      - 1
      - 0.4409448802471161
      - 0
      - 0
      - 1
    - pos:
      - 1.3333333333333333
      - 1
      - 0.4251968562602997
      - 1
      - 75
      - 1
    - pos:
      - 1.5812499999999998
      - 1
      - 0.4251968562602997
      - 0
      - 0
      - 1
    - pos:
      - 1.9999999999999998
      - 1
      - 0.4409448802471161
      - 1
      - 82
      - 0
    - pos:
      - 2.233333333333333
      - 1
      - 0.4409448802471161
      - 0
      - 0
      - 0
    - pos:
      - 2.666666666666666
      - 1
      - 0.4251968562602997
      - 1
      - 71
      - 0
    - pos:
      - 2.8624999999999994
      - 1
      - 0.4251968562602997
      - 0
      - 0
      - 0
    - pos:
      - 3.3333333333333326
      - 1
      - 0.4251968562602997
      - 1
      - 72
      - 1
    - pos:
      - 3.5145833333333325
      - 1
      - 0.4251968562602997
      - 0
      - 0
      - 1
    - pos:
      - 3.999999999999999
      - 1
      - 0.4566929042339325
      - 1
      - 83
      - 1
    - pos:
      - 4.333333333333332
      - 1
      - 0.4566929042339325
      - 0
      - 0
      - 1
    - pos:
      - 4.666666666666665
      - 1
      - 0.4409448802471161
      - 1
      - 83
      - 1
    - pos:
      - 4.9104166666666655
      - 1
      - 0.4409448802471161
      - 0
      - 0
      - 1
    - pos:
      - 5.333333333333332
      - 1
      - 0.4251968562602997
      - 1
      - 75
      - 1
    - pos:
      - 5.527083333333332
      - 1
      - 0.4251968562602997
      - 0
      - 0
      - 1
    - pos:
      - 5.999999999999998
      - 1
      - 0.4409448802471161
      - 1
      - 86
      - 1
    - pos:
      - 6.258333333333332
      - 1
      - 0.4409448802471161
      - 0
      - 0
      - 1
    - pos:
      - 6.666666666666665
      - 1
      - 0.4251968562602997
      - 1
      - 76
      - 1
    - pos:
      - 6.8479166666666655
      - 1
      - 0.4251968562602997
      - 0
      - 0
      - 1
    - pos:
      - 7.333333333333332
      - 1
      - 0.4251968562602997
      - 1
      - 77
      - 1
    - pos:
      - 7.522916666666665
      - 1
      - 0.4251968562602997
      - 0
      - 0
      - 1
    - pos:
      - 7.999999999999999
      - 1
      - 0.4566929042339325
      - 1
      - 80
      - 1
    - pos:
      - 8.25625
      - 1
      - 0.4566929042339325
      - 0
      - 0
      - 1
    - pos:
      - 8.666666666666666
      - 1
      - 0.4409448802471161
      - 1
      - 81
      - 1
    - pos:
      - 8.94375
      - 1
      - 0.4409448802471161
      - 0
      - 0
      - 1
    - pos:
      - 9.333333333333332
      - 1
      - 0.4251968562602997
      - 1
      - 75
      - 1
    - pos:
      - 9.581249999999999
      - 1
      - 0.4251968562602997
      - 0
      - 0
      - 1
    - pos:
      - 9.999999999999998
      - 1
      - 0.4409448802471161
      - 1
      - 82
      - 1
    - pos:
      - 10.23333333333333
      - 1
      - 0.4409448802471161
      - 0
      - 0
      - 1
    - pos:
      - 10.666666666666664
      - 1
      - 0.4251968562602997
      - 1
      - 71
      - 1
    - pos:
      - 10.862499999999997
      - 1
      - 0.4251968562602997
      - 0
      - 0
      - 1
    - pos:
      - 11.33333333333333
      - 1
      - 0.4251968562602997
      - 1
      - 72
      - 1
    - pos:
      - 11.51458333333333
      - 1
      - 0.4251968562602997
      - 0
      - 0
      - 1
    - pos:
      - 11.999999999999998
      - 1
      - 0.4566929042339325
      - 1
      - 83
      - 1
    - pos:
      - 12.291666666666664
      - 1
      - 0.4566929042339325
      - 0
      - 0
      - 1
    - pos:
      - 12.666666666666664
      - 1
      - 0.4409448802471161
      - 1
      - 83
      - 1
    - pos:
      - 12.910416666666665
      - 1
      - 0.4409448802471161
      - 0
      - 0
      - 1
    - pos:
      - 13.333333333333332
      - 1
      - 0.4251968562602997
      - 1
      - 75
      - 1
    - pos:
      - 13.527083333333332
      - 1
      - 0.4251968562602997
      - 0
      - 0
      - 1
    - pos:
      - 13.999999999999998
      - 1
      - 0.4409448802471161
      - 1
      - 86
      - 1
    - pos:
      - 14.258333333333331
      - 1
      - 0.4409448802471161
      - 0
      - 0
      - 1
    - pos:
      - 14.666666666666664
      - 1
      - 0.4251968562602997
      - 1
      - 76
      - 1
    - pos:
      - 14.847916666666665
      - 1
      - 0.4251968562602997
      - 0
      - 0
      - 1
    - pos:
      - 15.333333333333332
      - 1
      - 0.4251968562602997
      - 1
      - 77
      - 1
    - pos:
      - 15.522916666666665
      - 1
      - 0.4251968562602997
      - 0
      - 0
      - 1
    - pos:
      - 15.999999999999998
      - 1
      - 0.4566929042339325
      - 1
      - 80
      - 1
    - pos:
      - 16.256249999999998
      - 1
      - 0.4566929042339325
      - 0
      - 0
      - 1
    - pos:
      - 16.666666666666664
      - 1
      - 0.4409448802471161
      - 1
      - 81
      - 1
    - pos:
      - 16.943749999999998
      - 1
      - 0.4409448802471161
      - 0
      - 0
      - 1
    - pos:
      - 17.333333333333332
      - 1
      - 0.4251968562602997
      - 1
      - 75
      - 1
    - pos:
      - 17.581249999999997
      - 1
      - 0.4251968562602997
      - 0
      - 0
      - 1
    - pos:
      - 17.999999999999996
      - 1
      - 0.4409448802471161
      - 1
      - 82
      - 1
    - pos:
      - 18.23333333333333
      - 1
      - 0.4409448802471161
      - 0
      - 0
      - 1
    - pos:
      - 18.666666666666664
      - 1
      - 0.4251968562602997
      - 1
      - 71
      - 1
    - pos:
      - 18.862499999999997
      - 1
      - 0.4251968562602997
      - 0
      - 0
      - 1
    - pos:
      - 19.333333333333332
      - 1
      - 0.4251968562602997
      - 1
      - 72
      - 1
    - pos:
      - 19.51458333333333
      - 1
      - 0.4251968562602997
      - 0
      - 0
      - 1
    - pos:
      - 19.999999999999996
      - 1
      - 0.4566929042339325
      - 1
      - 83
      - 1
    - pos:
      - 20.291666666666664
      - 1
      - 0.4566929042339325
      - 0
      - 0
      - 1
    - pos:
      - 20.666666666666664
      - 1
      - 0.4409448802471161
      - 1
      - 83
      - 1
    - pos:
      - 20.910416666666663
      - 1
      - 0.4409448802471161
      - 0
      - 0
      - 1
    - pos:
      - 21.33333333333333
      - 1
      - 0.4251968562602997
      - 1
      - 75
      - 1
    - pos:
      - 21.52708333333333
      - 1
      - 0.4251968562602997
      - 0
      - 0
      - 1
    - pos:
      - 21.999999999999996
      - 1
      - 0.4409448802471161
      - 1
      - 86
      - 1
    - pos:
      - 22.25833333333333
      - 1
      - 0.4409448802471161
      - 0
      - 0
      - 1
    - pos:
      - 22.666666666666664
      - 1
      - 0.4251968562602997
      - 1
      - 76
      - 1
    - pos:
      - 22.847916666666663
      - 1
      - 0.4251968562602997
      - 0
      - 0
      - 1
    - pos:
      - 23.33333333333333
      - 1
      - 0.4251968562602997
      - 1
      - 77
      - 1
    - pos:
      - 23.522916666666664
      - 1
      - 0.4251968562602997
      - 0
      - 0
      - 1
    - pos:
      - 23.999999999999996
      - 1
      - 0.4566929042339325
      - 1
      - 80
      - 1
    - pos:
      - 24.256249999999998
      - 1
      - 0.4566929042339325
      - 0
      - 0
      - 1
    - pos:
      - 24.666666666666664
      - 1
      - 0.4409448802471161
      - 1
      - 81
      - 1
    - pos:
      - 24.943749999999998
      - 1
      - 0.4409448802471161
      - 0
      - 0
      - 1
    - pos:
      - 25.333333333333332
      - 1
      - 0.4251968562602997
      - 1
      - 75
      - 1
    - pos:
      - 25.581249999999997
      - 1
      - 0.4251968562602997
      - 0
      - 0
      - 1
    - pos:
      - 25.999999999999996
      - 1
      - 0.4409448802471161
      - 1
      - 82
      - 1
    - pos:
      - 26.23333333333333
      - 1
      - 0.4409448802471161
      - 0
      - 0
      - 1
    - pos:
      - 26.666666666666664
      - 1
      - 0.4251968562602997
      - 1
      - 71
      - 1
    - pos:
      - 26.862499999999997
      - 1
      - 0.4251968562602997
      - 0
      - 0
      - 1
    - pos:
      - 27.333333333333332
      - 1
      - 0.4251968562602997
      - 1
      - 72
      - 1
    - pos:
      - 27.51458333333333
      - 1
      - 0.4251968562602997
      - 0
      - 0
      - 1
    - pos:
      - 27.999999999999996
      - 1
      - 0.4566929042339325
      - 1
      - 83
      - 1
    - pos:
      - 28.291666666666664
      - 1
      - 0.4566929042339325
      - 0
      - 0
      - 1
    - pos:
      - 28.666666666666664
      - 1
      - 0.4409448802471161
      - 1
      - 83
      - 1
    - pos:
      - 28.910416666666663
      - 1
      - 0.4409448802471161
      - 0
      - 0
      - 1
    - pos:
      - 29.33333333333333
      - 1
      - 0.4251968562602997
      - 1
      - 75
      - 1
    - pos:
      - 29.52708333333333
      - 1
      - 0.4251968562602997
      - 0
      - 0
      - 1
    - pos:
      - 29.999999999999996
      - 1
      - 0.4409448802471161
      - 1
      - 86
      - 1
    - pos:
      - 30.25833333333333
      - 1
      - 0.4409448802471161
      - 0
      - 0
      - 1
    - pos:
      - 30.666666666666664
      - 1
      - 0.4251968562602997
      - 1
      - 76
      - 1
    - pos:
      - 30.847916666666663
      - 1
      - 0.4251968562602997
      - 0
      - 0
      - 1
    - pos:
      - 31.33333333333333
      - 1
      - 0.4251968562602997
      - 1
      - 77
      - 1
    - pos:
      - 31.522916666666664
      - 1
      - 0.4251968562602997
      - 0
      - 0
      - 1
