%YAML 1.1
%TAG !u! tag:unity3d.com,2011:
--- !u!114 &11400000
MonoBehaviour:
  m_ObjectHideFlags: 0
  m_CorrespondingSourceObject: {fileID: 0}
  m_PrefabInstance: {fileID: 0}
  m_PrefabAsset: {fileID: 0}
  m_GameObject: {fileID: 0}
  m_Enabled: 1
  m_EditorHideFlags: 0
  m_Script: {fileID: 11500000, guid: bdd15de2129234cd6ab89ff661735f1f, type: 3}
  m_Name: Spiccato345Strings - Spiccato - Sparring_withInsertsandAutomation.midi
  m_EditorClassIdentifier: 
  beatPosition: 48
  beatLength: 0
  minpitch: 0.4251968562602997
  maxpitch: 0.4566929042339325
  trackNumber: 11
  cursorArrayContainer:
  - steps:
    - pos:
      - 0.2562499999999877
      - 1
      - 0.4566929042339325
      - 0
      - 0
      - 1
    - pos:
      - 0.6666666666666543
      - 1
      - 0.4409448802471161
      - 1
      - 81
      - 1
    - pos:
      - 0.9437499999999877
      - 1
      - 0.4409448802471161
      - 0
      - 0
      - 1
    - pos:
      - 1.333333333333321
      - 1
      - 0.4251968562602997
      - 1
      - 75
      - 1
    - pos:
      - 1.5812499999999878
      - 1
      - 0.4251968562602997
      - 0
      - 0
      - 1
    - pos:
      - 1.9999999999999878
      - 1
      - 0.4409448802471161
      - 1
      - 82
      - 1
    - pos:
      - 2.233333333333321
      - 1
      - 0.4409448802471161
      - 0
      - 0
      - 1
    - pos:
      - 2.6666666666666545
      - 1
      - 0.4251968562602997
      - 1
      - 71
      - 1
    - pos:
      - 2.862499999999988
      - 1
      - 0.4251968562602997
      - 0
      - 0
      - 1
    - pos:
      - 3.333333333333321
      - 1
      - 0.4251968562602997
      - 1
      - 72
      - 1
    - pos:
      - 3.514583333333321
      - 1
      - 0.4251968562602997
      - 0
      - 0
      - 1
    - pos:
      - 3.9999999999999876
      - 1
      - 0.4566929042339325
      - 1
      - 83
      - 1
    - pos:
      - 4.2916666666666545
      - 1
      - 0.4566929042339325
      - 0
      - 0
      - 1
    - pos:
      - 4.6666666666666545
      - 1
      - 0.4409448802471161
      - 1
      - 83
      - 1
    - pos:
      - 4.910416666666655
      - 1
      - 0.4409448802471161
      - 0
      - 0
      - 1
    - pos:
      - 5.3333333333333215
      - 1
      - 0.4251968562602997
      - 1
      - 75
      - 1
    - pos:
      - 5.527083333333321
      - 1
      - 0.4251968562602997
      - 0
      - 0
      - 1
    - pos:
      - 5.999999999999988
      - 1
      - 0.4409448802471161
      - 1
      - 86
      - 1
    - pos:
      - 6.258333333333321
      - 1
      - 0.4409448802471161
      - 0
      - 0
      - 1
    - pos:
      - 6.6666666666666545
      - 1
      - 0.4251968562602997
      - 1
      - 76
      - 1
    - pos:
      - 6.847916666666655
      - 1
      - 0.4251968562602997
      - 0
      - 0
      - 1
    - pos:
      - 7.3333333333333215
      - 1
      - 0.4251968562602997
      - 1
      - 77
      - 1
    - pos:
      - 7.522916666666655
      - 1
      - 0.4251968562602997
      - 0
      - 0
      - 1
    - pos:
      - 7.9999999999999885
      - 1
      - 0.4566929042339325
      - 1
      - 80
      - 1
    - pos:
      - 8.256249999999989
      - 1
      - 0.4566929042339325
      - 0
      - 0
      - 1
    - pos:
      - 8.666666666666655
      - 1
      - 0.4409448802471161
      - 1
      - 81
      - 1
    - pos:
      - 8.943749999999989
      - 1
      - 0.4409448802471161
      - 0
      - 0
      - 1
    - pos:
      - 9.333333333333321
      - 1
      - 0.4251968562602997
      - 1
      - 75
      - 1
    - pos:
      - 9.581249999999988
      - 1
      - 0.4251968562602997
      - 0
      - 0
      - 1
    - pos:
      - 9.999999999999988
      - 1
      - 0.4409448802471161
      - 1
      - 82
      - 1
    - pos:
      - 10.23333333333332
      - 1
      - 0.4409448802471161
      - 0
      - 0
      - 1
    - pos:
      - 10.666666666666654
      - 1
      - 0.4251968562602997
      - 1
      - 71
      - 1
    - pos:
      - 10.862499999999986
      - 1
      - 0.4251968562602997
      - 0
      - 0
      - 1
    - pos:
      - 11.33333333333332
      - 1
      - 0.4251968562602997
      - 1
      - 72
      - 1
    - pos:
      - 11.51458333333332
      - 1
      - 0.4251968562602997
      - 0
      - 0
      - 1
    - pos:
      - 11.999999999999988
      - 1
      - 0.4566929042339325
      - 1
      - 83
      - 1
    - pos:
      - 12.291666666666654
      - 1
      - 0.4566929042339325
      - 0
      - 0
      - 1
    - pos:
      - 12.666666666666654
      - 1
      - 0.4409448802471161
      - 1
      - 83
      - 1
    - pos:
      - 12.910416666666654
      - 1
      - 0.4409448802471161
      - 0
      - 0
      - 1
    - pos:
      - 13.333333333333321
      - 1
      - 0.4251968562602997
      - 1
      - 75
      - 1
    - pos:
      - 13.527083333333321
      - 1
      - 0.4251968562602997
      - 0
      - 0
      - 1
    - pos:
      - 13.999999999999988
      - 1
      - 0.4409448802471161
      - 1
      - 86
      - 1
    - pos:
      - 14.25833333333332
      - 1
      - 0.4409448802471161
      - 0
      - 0
      - 1
    - pos:
      - 14.666666666666654
      - 1
      - 0.4251968562602997
      - 1
      - 76
      - 1
    - pos:
      - 14.847916666666654
      - 1
      - 0.4251968562602997
      - 0
      - 0
      - 1
    - pos:
      - 15.333333333333321
      - 1
      - 0.4251968562602997
      - 1
      - 77
      - 1
    - pos:
      - 15.522916666666655
      - 1
      - 0.4251968562602997
      - 0
      - 0
      - 1
