%YAML 1.1
%TAG !u! tag:unity3d.com,2011:
--- !u!114 &11400000
MonoBehaviour:
  m_ObjectHideFlags: 0
  m_CorrespondingSourceObject: {fileID: 0}
  m_PrefabInstance: {fileID: 0}
  m_PrefabAsset: {fileID: 0}
  m_GameObject: {fileID: 0}
  m_Enabled: 1
  m_EditorHideFlags: 0
  m_Script: {fileID: 11500000, guid: bdd15de2129234cd6ab89ff661735f1f, type: 3}
  m_Name: Spiccato550Strings - Spiccato - Sparring_withInsertsandAutomation.midi
  m_EditorClassIdentifier: 
  beatPosition: 64
  beatLength: 0
  minpitch: 0.4645669162273407
  maxpitch: 0.5590550899505615
  trackNumber: 13
  cursorArrayContainer:
  - steps:
    - pos:
      - 0.9999999999999929
      - 1
      - 0.4803149700164795
      - 1
      - 70
      - 1
    - pos:
      - 1.502083333333326
      - 1
      - 0.4803149700164795
      - 0
      - 0
      - 1
    - pos:
      - 1.999999999999993
      - 1
      - 0.4960629940032959
      - 1
      - 76
      - 1
    - pos:
      - 2.249999999999993
      - 1
      - 0.4960629940032959
      - 0
      - 0
      - 1
    - pos:
      - 2.3333333333333264
      - 1
      - 0.4803149700164795
      - 1
      - 60
      - 1
    - pos:
      - 2.9770833333333266
      - 1
      - 0.4803149700164795
      - 0
      - 0
      - 1
    - pos:
      - 4.999999999999993
      - 1
      - 0.4803149700164795
      - 1
      - 70
      - 1
    - pos:
      - 5.502083333333326
      - 1
      - 0.4803149700164795
      - 0
      - 0
      - 1
    - pos:
      - 5.999999999999993
      - 1
      - 0.4960629940032959
      - 1
      - 76
      - 1
    - pos:
      - 6.249999999999993
      - 1
      - 0.4960629940032959
      - 0
      - 0
      - 1
    - pos:
      - 6.333333333333326
      - 1
      - 0.4803149700164795
      - 1
      - 60
      - 1
    - pos:
      - 6.977083333333326
      - 1
      - 0.4803149700164795
      - 0
      - 0
      - 1
    - pos:
      - 8.999999999999993
      - 1
      - 0.4803149700164795
      - 1
      - 63
      - 1
    - pos:
      - 9.474999999999993
      - 1
      - 0.4803149700164795
      - 0
      - 0
      - 1
    - pos:
      - 9.999999999999993
      - 1
      - 0.4960629940032959
      - 1
      - 80
      - 1
    - pos:
      - 10.249999999999993
      - 1
      - 0.4960629940032959
      - 0
      - 0
      - 1
    - pos:
      - 10.333333333333327
      - 1
      - 0.4803149700164795
      - 1
      - 60
      - 1
    - pos:
      - 10.92291666666666
      - 1
      - 0.4803149700164795
      - 0
      - 0
      - 1
    - pos:
      - 12.999999999999993
      - 1
      - 0.4803149700164795
      - 1
      - 69
      - 1
    - pos:
      - 13.479166666666659
      - 1
      - 0.4803149700164795
      - 0
      - 0
      - 1
    - pos:
      - 13.999999999999993
      - 1
      - 0.4960629940032959
      - 1
      - 76
      - 1
    - pos:
      - 14.333333333333327
      - 1
      - 0.4803149700164795
      - 1
      - 63
      - 1
    - pos:
      - 14.499999999999993
      - 1
      - 0.4960629940032959
      - 0
      - 0
      - 1
    - pos:
      - 14.666666666666659
      - 1
      - 0.4645669162273407
      - 1
      - 64
      - 1
    - pos:
      - 14.695833333333326
      - 1
      - 0.4803149700164795
      - 0
      - 0
      - 1
    - pos:
      - 15.156249999999993
      - 1
      - 0.4645669162273407
      - 0
      - 0
      - 1
    - pos:
      - 16.999999999999993
      - 1
      - 0.4803149700164795
      - 1
      - 65
      - 1
    - pos:
      - 17.512499999999992
      - 1
      - 0.4803149700164795
      - 0
      - 0
      - 1
    - pos:
      - 17.999999999999993
      - 1
      - 0.4960629940032959
      - 1
      - 75
      - 1
    - pos:
      - 18.333333333333325
      - 1
      - 0.4803149700164795
      - 1
      - 59
      - 1
    - pos:
      - 18.64791666666666
      - 1
      - 0.4960629940032959
      - 0
      - 0
      - 1
    - pos:
      - 18.927083333333325
      - 1
      - 0.4803149700164795
      - 0
      - 0
      - 1
    - pos:
      - 20.999999999999993
      - 1
      - 0.4803149700164795
      - 1
      - 54
      - 1
    - pos:
      - 21.445833333333326
      - 1
      - 0.4803149700164795
      - 0
      - 0
      - 1
    - pos:
      - 21.999999999999993
      - 1
      - 0.4960629940032959
      - 1
      - 84
      - 1
    - pos:
      - 22.333333333333325
      - 1
      - 0.4803149700164795
      - 1
      - 49
      - 1
    - pos:
      - 22.702083333333324
      - 1
      - 0.4960629940032959
      - 0
      - 0
      - 1
    - pos:
      - 22.92291666666666
      - 1
      - 0.4803149700164795
      - 0
      - 0
      - 1
    - pos:
      - 24.999999999999993
      - 1
      - 0.4803149700164795
      - 1
      - 61
      - 1
    - pos:
      - 25.44791666666666
      - 1
      - 0.4803149700164795
      - 0
      - 0
      - 1
    - pos:
      - 25.999999999999993
      - 1
      - 0.4960629940032959
      - 1
      - 84
      - 1
    - pos:
      - 26.333333333333325
      - 1
      - 0.4803149700164795
      - 1
      - 79
      - 1
    - pos:
      - 26.67916666666666
      - 1
      - 0.4960629940032959
      - 0
      - 0
      - 1
    - pos:
      - 26.874999999999993
      - 1
      - 0.4803149700164795
      - 0
      - 0
      - 1
    - pos:
      - 28.999999999999993
      - 1
      - 0.4803149700164795
      - 1
      - 74
      - 1
    - pos:
      - 29.483333333333327
      - 1
      - 0.4803149700164795
      - 0
      - 0
      - 1
    - pos:
      - 29.999999999999993
      - 1
      - 0.4960629940032959
      - 1
      - 84
      - 1
    - pos:
      - 30.333333333333325
      - 1
      - 0.5590550899505615
      - 1
      - 83
      - 1
    - pos:
      - 30.499999999999993
      - 1
      - 0.4960629940032959
      - 0
      - 0
      - 1
    - pos:
      - 30.66666666666666
      - 1
      - 0.5511810779571533
      - 1
      - 70
      - 1
    - pos:
      - 30.82291666666666
      - 1
      - 0.5590550899505615
      - 0
      - 0
      - 1
    - pos:
      - 30.999999999999993
      - 1
      - 0.5354330539703369
      - 1
      - 75
      - 1
    - pos:
      - 31.26041666666666
      - 1
      - 0.5511810779571533
      - 0
      - 0
      - 1
    - pos:
      - 31.33333333333333
      - 1
      - 0.5196850299835205
      - 1
      - 72
      - 1
    - pos:
      - 31.45833333333333
      - 1
      - 0.5354330539703369
      - 0
      - 0
      - 1
    - pos:
      - 31.66666666666666
      - 1
      - 0.4960629940032959
      - 1
      - 75
      - 1
    - pos:
      - 31.714583333333326
      - 1
      - 0.5196850299835205
      - 0
      - 0
      - 1
    - pos:
      - 32.02916666666666
      - 1
      - 0.4960629940032959
      - 0
      - 0
      - 1
    - pos:
      - 32.33333333333333
      - 1
      - 0.4645669162273407
      - 1
      - 83
      - 1
    - pos:
      - 32.822916666666664
      - 1
      - 0.4645669162273407
      - 0
      - 0
      - 1
