%YAML 1.1
%TAG !u! tag:unity3d.com,2011:
--- !u!114 &11400000
MonoBehaviour:
  m_ObjectHideFlags: 0
  m_CorrespondingSourceObject: {fileID: 0}
  m_PrefabInstance: {fileID: 0}
  m_PrefabAsset: {fileID: 0}
  m_GameObject: {fileID: 0}
  m_Enabled: 1
  m_EditorHideFlags: 0
  m_Script: {fileID: 11500000, guid: bdd15de2129234cd6ab89ff661735f1f, type: 3}
  m_Name: Spiccato346Strings - Spiccato - Sparring_withInsertsandAutomation.midi
  m_EditorClassIdentifier: 
  beatPosition: 64
  beatLength: 0
  minpitch: 0.4173228442668915
  maxpitch: 0.4645669162273407
  trackNumber: 11
  cursorArrayContainer:
  - steps:
    - pos:
      - 0.3333333333333073
      - 1
      - 0.4409448802471161
      - 1
      - 77
      - 1
    - pos:
      - 0.6666666666666405
      - 1
      - 0.4566929042339325
      - 1
      - 73
      - 1
    - pos:
      - 0.8895833333333072
      - 1
      - 0.4409448802471161
      - 0
      - 0
      - 1
    - pos:
      - 1.0041666666666405
      - 1
      - 0.4566929042339325
      - 0
      - 0
      - 1
    - pos:
      - 1.333333333333307
      - 1
      - 0.4566929042339325
      - 1
      - 64
      - 1
    - pos:
      - 1.6666666666666403
      - 1
      - 0.4409448802471161
      - 1
      - 82
      - 1
    - pos:
      - 1.7916666666666403
      - 1
      - 0.4566929042339325
      - 0
      - 0
      - 1
    - pos:
      - 2.1354166666666403
      - 1
      - 0.4409448802471161
      - 0
      - 0
      - 1
    - pos:
      - 2.6666666666666403
      - 1
      - 0.4566929042339325
      - 1
      - 72
      - 1
    - pos:
      - 2.999999999999974
      - 1
      - 0.4409448802471161
      - 1
      - 64
      - 1
    - pos:
      - 3.1666666666666403
      - 1
      - 0.4566929042339325
      - 0
      - 0
      - 1
    - pos:
      - 3.4854166666666404
      - 1
      - 0.4409448802471161
      - 0
      - 0
      - 1
    - pos:
      - 3.6666666666666403
      - 1
      - 0.4251968562602997
      - 1
      - 68
      - 1
    - pos:
      - 4.093749999999973
      - 1
      - 0.4251968562602997
      - 0
      - 0
      - 1
    - pos:
      - 4.333333333333306
      - 1
      - 0.4409448802471161
      - 1
      - 77
      - 1
    - pos:
      - 4.666666666666639
      - 1
      - 0.4566929042339325
      - 1
      - 73
      - 1
    - pos:
      - 4.889583333333306
      - 1
      - 0.4409448802471161
      - 0
      - 0
      - 1
    - pos:
      - 5.004166666666639
      - 1
      - 0.4566929042339325
      - 0
      - 0
      - 1
    - pos:
      - 5.3333333333333055
      - 1
      - 0.4566929042339325
      - 1
      - 64
      - 1
    - pos:
      - 5.6666666666666385
      - 1
      - 0.4409448802471161
      - 1
      - 82
      - 1
    - pos:
      - 5.7916666666666385
      - 1
      - 0.4566929042339325
      - 0
      - 0
      - 1
    - pos:
      - 6.1354166666666385
      - 1
      - 0.4409448802471161
      - 0
      - 0
      - 1
    - pos:
      - 6.6666666666666385
      - 1
      - 0.4566929042339325
      - 1
      - 72
      - 1
    - pos:
      - 6.999999999999972
      - 1
      - 0.4409448802471161
      - 1
      - 64
      - 1
    - pos:
      - 7.1666666666666385
      - 1
      - 0.4566929042339325
      - 0
      - 0
      - 1
    - pos:
      - 7.485416666666638
      - 1
      - 0.4409448802471161
      - 0
      - 0
      - 1
    - pos:
      - 7.6666666666666385
      - 1
      - 0.4251968562602997
      - 1
      - 68
      - 1
    - pos:
      - 8.093749999999972
      - 1
      - 0.4251968562602997
      - 0
      - 0
      - 1
    - pos:
      - 8.333333333333306
      - 1
      - 0.4409448802471161
      - 1
      - 81
      - 1
    - pos:
      - 8.66666666666664
      - 1
      - 0.4566929042339325
      - 1
      - 71
      - 1
    - pos:
      - 8.906249999999973
      - 1
      - 0.4409448802471161
      - 0
      - 0
      - 1
    - pos:
      - 9.01041666666664
      - 1
      - 0.4566929042339325
      - 0
      - 0
      - 1
    - pos:
      - 9.333333333333306
      - 1
      - 0.4566929042339325
      - 1
      - 71
      - 1
    - pos:
      - 9.66666666666664
      - 1
      - 0.4409448802471161
      - 1
      - 76
      - 1
    - pos:
      - 9.739583333333306
      - 1
      - 0.4566929042339325
      - 0
      - 0
      - 1
    - pos:
      - 10.102083333333306
      - 1
      - 0.4409448802471161
      - 0
      - 0
      - 1
    - pos:
      - 10.66666666666664
      - 1
      - 0.4566929042339325
      - 1
      - 66
      - 1
    - pos:
      - 10.999999999999973
      - 1
      - 0.4409448802471161
      - 1
      - 73
      - 1
    - pos:
      - 11.15416666666664
      - 1
      - 0.4566929042339325
      - 0
      - 0
      - 1
    - pos:
      - 11.539583333333306
      - 1
      - 0.4409448802471161
      - 0
      - 0
      - 1
    - pos:
      - 11.66666666666664
      - 1
      - 0.4251968562602997
      - 1
      - 74
      - 1
    - pos:
      - 12.008333333333306
      - 1
      - 0.4251968562602997
      - 0
      - 0
      - 1
    - pos:
      - 12.333333333333306
      - 1
      - 0.4409448802471161
      - 1
      - 77
      - 1
    - pos:
      - 12.66666666666664
      - 1
      - 0.4566929042339325
      - 1
      - 75
      - 1
    - pos:
      - 12.860416666666639
      - 1
      - 0.4409448802471161
      - 0
      - 0
      - 1
    - pos:
      - 12.970833333333307
      - 1
      - 0.4566929042339325
      - 0
      - 0
      - 1
    - pos:
      - 13.333333333333307
      - 1
      - 0.4566929042339325
      - 1
      - 75
      - 1
    - pos:
      - 13.666666666666641
      - 1
      - 0.4409448802471161
      - 1
      - 78
      - 1
    - pos:
      - 13.781249999999975
      - 1
      - 0.4566929042339325
      - 0
      - 0
      - 1
    - pos:
      - 14.091666666666642
      - 1
      - 0.4409448802471161
      - 0
      - 0
      - 1
    - pos:
      - 14.666666666666641
      - 1
      - 0.4645669162273407
      - 1
      - 64
      - 1
    - pos:
      - 14.999999999999975
      - 1
      - 0.4409448802471161
      - 1
      - 77
      - 1
    - pos:
      - 15.156249999999975
      - 1
      - 0.4645669162273407
      - 0
      - 0
      - 1
    - pos:
      - 15.495833333333309
      - 1
      - 0.4409448802471161
      - 0
      - 0
      - 1
    - pos:
      - 15.666666666666641
      - 1
      - 0.4251968562602997
      - 1
      - 69
      - 1
    - pos:
      - 16.054166666666642
      - 1
      - 0.4251968562602997
      - 0
      - 0
      - 1
    - pos:
      - 16.333333333333307
      - 1
      - 0.4409448802471161
      - 1
      - 82
      - 1
    - pos:
      - 16.66666666666664
      - 1
      - 0.4566929042339325
      - 1
      - 68
      - 1
    - pos:
      - 16.895833333333307
      - 1
      - 0.4409448802471161
      - 0
      - 0
      - 1
    - pos:
      - 17.020833333333307
      - 1
      - 0.4566929042339325
      - 0
      - 0
      - 1
    - pos:
      - 17.333333333333307
      - 1
      - 0.4566929042339325
      - 1
      - 65
      - 1
    - pos:
      - 17.66666666666664
      - 1
      - 0.4409448802471161
      - 1
      - 76
      - 1
    - pos:
      - 17.743749999999974
      - 1
      - 0.4566929042339325
      - 0
      - 0
      - 1
    - pos:
      - 18.15208333333331
      - 1
      - 0.4409448802471161
      - 0
      - 0
      - 1
    - pos:
      - 18.666666666666643
      - 1
      - 0.4566929042339325
      - 1
      - 58
      - 1
    - pos:
      - 18.999999999999975
      - 1
      - 0.4409448802471161
      - 1
      - 72
      - 1
    - pos:
      - 19.11041666666664
      - 1
      - 0.4566929042339325
      - 0
      - 0
      - 1
    - pos:
      - 19.489583333333307
      - 1
      - 0.4409448802471161
      - 0
      - 0
      - 1
    - pos:
      - 19.66666666666664
      - 1
      - 0.4251968562602997
      - 1
      - 67
      - 1
    - pos:
      - 20.05416666666664
      - 1
      - 0.4251968562602997
      - 0
      - 0
      - 1
    - pos:
      - 20.333333333333304
      - 1
      - 0.4409448802471161
      - 1
      - 72
      - 1
    - pos:
      - 20.666666666666636
      - 1
      - 0.4566929042339325
      - 1
      - 75
      - 1
    - pos:
      - 20.927083333333304
      - 1
      - 0.4409448802471161
      - 0
      - 0
      - 1
    - pos:
      - 20.995833333333305
      - 1
      - 0.4566929042339325
      - 0
      - 0
      - 1
    - pos:
      - 21.333333333333304
      - 1
      - 0.4566929042339325
      - 1
      - 64
      - 1
    - pos:
      - 21.666666666666636
      - 1
      - 0.4409448802471161
      - 1
      - 74
      - 1
    - pos:
      - 21.785416666666634
      - 1
      - 0.4566929042339325
      - 0
      - 0
      - 1
    - pos:
      - 22.139583333333302
      - 1
      - 0.4409448802471161
      - 0
      - 0
      - 1
    - pos:
      - 22.666666666666636
      - 1
      - 0.4566929042339325
      - 1
      - 63
      - 1
    - pos:
      - 22.999999999999968
      - 1
      - 0.4409448802471161
      - 1
      - 64
      - 1
    - pos:
      - 23.13124999999997
      - 1
      - 0.4566929042339325
      - 0
      - 0
      - 1
    - pos:
      - 23.533333333333303
      - 1
      - 0.4409448802471161
      - 0
      - 0
      - 1
    - pos:
      - 23.666666666666636
      - 1
      - 0.4251968562602997
      - 1
      - 62
      - 1
    - pos:
      - 24.07499999999997
      - 1
      - 0.4251968562602997
      - 0
      - 0
      - 1
    - pos:
      - 24.333333333333304
      - 1
      - 0.4409448802471161
      - 1
      - 79
      - 1
    - pos:
      - 24.666666666666636
      - 1
      - 0.4566929042339325
      - 1
      - 72
      - 1
    - pos:
      - 24.88749999999997
      - 1
      - 0.4409448802471161
      - 0
      - 0
      - 1
    - pos:
      - 24.997916666666637
      - 1
      - 0.4566929042339325
      - 0
      - 0
      - 1
    - pos:
      - 25.333333333333304
      - 1
      - 0.4566929042339325
      - 1
      - 74
      - 1
    - pos:
      - 25.666666666666636
      - 1
      - 0.4409448802471161
      - 1
      - 79
      - 1
    - pos:
      - 25.75624999999997
      - 1
      - 0.4566929042339325
      - 0
      - 0
      - 1
    - pos:
      - 26.13749999999997
      - 1
      - 0.4409448802471161
      - 0
      - 0
      - 1
    - pos:
      - 26.666666666666636
      - 1
      - 0.4566929042339325
      - 1
      - 70
      - 1
    - pos:
      - 26.999999999999968
      - 1
      - 0.4409448802471161
      - 1
      - 80
      - 1
    - pos:
      - 27.104166666666636
      - 1
      - 0.4566929042339325
      - 0
      - 0
      - 1
    - pos:
      - 27.441666666666634
      - 1
      - 0.4409448802471161
      - 0
      - 0
      - 1
    - pos:
      - 27.666666666666636
      - 1
      - 0.4251968562602997
      - 1
      - 77
      - 1
    - pos:
      - 28.04999999999997
      - 1
      - 0.4251968562602997
      - 0
      - 0
      - 1
    - pos:
      - 28.333333333333304
      - 1
      - 0.4409448802471161
      - 1
      - 84
      - 1
    - pos:
      - 28.666666666666636
      - 1
      - 0.4566929042339325
      - 1
      - 76
      - 1
    - pos:
      - 28.947916666666636
      - 1
      - 0.4409448802471161
      - 0
      - 0
      - 1
    - pos:
      - 29.04999999999997
      - 1
      - 0.4566929042339325
      - 0
      - 0
      - 1
    - pos:
      - 29.333333333333304
      - 1
      - 0.4566929042339325
      - 1
      - 75
      - 1
    - pos:
      - 29.666666666666636
      - 1
      - 0.4409448802471161
      - 1
      - 78
      - 1
    - pos:
      - 29.747916666666637
      - 1
      - 0.4566929042339325
      - 0
      - 0
      - 1
    - pos:
      - 30.179166666666635
      - 1
      - 0.4409448802471161
      - 0
      - 0
      - 1
    - pos:
      - 30.666666666666636
      - 1
      - 0.4566929042339325
      - 1
      - 70
      - 1
    - pos:
      - 30.999999999999968
      - 1
      - 0.4409448802471161
      - 1
      - 81
      - 1
    - pos:
      - 31.127083333333303
      - 1
      - 0.4566929042339325
      - 0
      - 0
      - 1
    - pos:
      - 31.427083333333304
      - 1
      - 0.4409448802471161
      - 0
      - 0
      - 1
    - pos:
      - 31.666666666666636
      - 1
      - 0.4173228442668915
      - 1
      - 80
      - 1
    - pos:
      - 31.891666666666637
      - 1
      - 0.4173228442668915
      - 0
      - 0
      - 1
    - pos:
      - 32.33333333333331
      - 1
      - 0.4645669162273407
      - 1
      - 83
      - 1
    - pos:
      - 32.56249999999997
      - 1
      - 0.4645669162273407
      - 0
      - 0
      - 1
    - pos:
      - 32.666666666666636
      - 1
      - 0.4566929042339325
      - 1
      - 70
      - 1
    - pos:
      - 32.91874999999997
      - 1
      - 0.4566929042339325
      - 0
      - 0
      - 1
    - pos:
      - 32.999999999999964
      - 1
      - 0.4409448802471161
      - 1
      - 75
      - 1
    - pos:
      - 33.19791666666663
      - 1
      - 0.4409448802471161
      - 0
      - 0
      - 1
    - pos:
      - 33.33333333333329
      - 1
      - 0.4251968562602997
      - 1
      - 72
      - 1
    - pos:
      - 33.554166666666625
      - 1
      - 0.4251968562602997
      - 0
      - 0
      - 1
    - pos:
      - 33.66666666666662
      - 1
      - 0.4251968562602997
      - 1
      - 76
      - 1
    - pos:
      - 33.88541666666662
      - 1
      - 0.4251968562602997
      - 0
      - 0
      - 1
    - pos:
      - 34.66666666666662
      - 1
      - 0.4251968562602997
      - 1
      - 78
      - 1
    - pos:
      - 34.991666666666625
      - 1
      - 0.4251968562602997
      - 0
      - 0
      - 1
    - pos:
      - 35.66666666666662
      - 1
      - 0.4251968562602997
      - 1
      - 80
      - 1
    - pos:
      - 35.97291666666662
      - 1
      - 0.4251968562602997
      - 0
      - 0
      - 1
    - pos:
      - 36.66666666666662
      - 1
      - 0.4251968562602997
      - 1
      - 77
      - 1
    - pos:
      - 37.022916666666625
      - 1
      - 0.4251968562602997
      - 0
      - 0
      - 1
    - pos:
      - 37.66666666666662
      - 1
      - 0.4251968562602997
      - 1
      - 79
      - 1
    - pos:
      - 38.00416666666662
      - 1
      - 0.4251968562602997
      - 0
      - 0
      - 1
    - pos:
      - 38.66666666666662
      - 1
      - 0.4251968562602997
      - 1
      - 81
      - 1
    - pos:
      - 38.88124999999995
      - 1
      - 0.4251968562602997
      - 0
      - 0
      - 1
    - pos:
      - 38.99999999999995
      - 1
      - 0.4409448802471161
      - 1
      - 84
      - 1
    - pos:
      - 39.17916666666662
      - 1
      - 0.4409448802471161
      - 0
      - 0
      - 1
    - pos:
      - 39.333333333333286
      - 1
      - 0.4251968562602997
      - 1
      - 77
      - 1
    - pos:
      - 39.518749999999955
      - 1
      - 0.4251968562602997
      - 0
      - 0
      - 1
    - pos:
      - 40.66666666666662
      - 1
      - 0.4251968562602997
      - 1
      - 81
      - 1
    - pos:
      - 40.97916666666662
      - 1
      - 0.4251968562602997
      - 0
      - 0
      - 1
    - pos:
      - 41.66666666666662
      - 1
      - 0.4251968562602997
      - 1
      - 78
      - 1
    - pos:
      - 41.956249999999955
      - 1
      - 0.4251968562602997
      - 0
      - 0
      - 1
    - pos:
      - 42.66666666666662
      - 1
      - 0.4251968562602997
      - 1
      - 75
      - 1
    - pos:
      - 42.95208333333329
      - 1
      - 0.4251968562602997
      - 0
      - 0
      - 1
    - pos:
      - 43.66666666666662
      - 1
      - 0.4251968562602997
      - 1
      - 85
      - 1
    - pos:
      - 43.958333333333286
      - 1
      - 0.4251968562602997
      - 0
      - 0
      - 1
    - pos:
      - 44.66666666666662
      - 1
      - 0.4251968562602997
      - 1
      - 76
      - 1
    - pos:
      - 44.960416666666625
      - 1
      - 0.4251968562602997
      - 0
      - 0
      - 1
    - pos:
      - 45.66666666666662
      - 1
      - 0.4251968562602997
      - 1
      - 84
      - 1
    - pos:
      - 46.00833333333329
      - 1
      - 0.4251968562602997
      - 0
      - 0
      - 1
    - pos:
      - 46.66666666666662
      - 1
      - 0.4251968562602997
      - 1
      - 75
      - 1
    - pos:
      - 46.956249999999955
      - 1
      - 0.4251968562602997
      - 0
      - 0
      - 1
    - pos:
      - 46.99999999999996
      - 1
      - 0.4566929042339325
      - 1
      - 88
      - 1
    - pos:
      - 47.27708333333329
      - 1
      - 0.4566929042339325
      - 0
      - 0
      - 1
    - pos:
      - 47.333333333333286
      - 1
      - 0.4251968562602997
      - 1
      - 82
      - 1
    - pos:
      - 47.62499999999995
      - 1
      - 0.4251968562602997
      - 0
      - 0
      - 1
    - pos:
      - 47.666666666666615
      - 1
      - 0.4409448802471161
      - 1
      - 78
      - 1
    - pos:
      - 47.920833333333285
      - 1
      - 0.4409448802471161
      - 0
      - 0
      - 1
    - pos:
      - 48.666666666666615
      - 1
      - 0.4251968562602997
      - 1
      - 74
      - 1
    - pos:
      - 48.96458333333328
      - 1
      - 0.4251968562602997
      - 0
      - 0
      - 1
    - pos:
      - 49.666666666666615
      - 1
      - 0.4251968562602997
      - 1
      - 76
      - 1
    - pos:
      - 50.014583333333285
      - 1
      - 0.4251968562602997
      - 0
      - 0
      - 1
    - pos:
      - 50.666666666666615
      - 1
      - 0.4251968562602997
      - 1
      - 77
      - 1
    - pos:
      - 51.03124999999995
      - 1
      - 0.4251968562602997
      - 0
      - 0
      - 1
    - pos:
      - 51.666666666666615
      - 1
      - 0.4251968562602997
      - 1
      - 79
      - 1
    - pos:
      - 51.99166666666662
      - 1
      - 0.4251968562602997
      - 0
      - 0
      - 1
    - pos:
      - 52.666666666666615
      - 1
      - 0.4251968562602997
      - 1
      - 84
      - 1
    - pos:
      - 52.94166666666661
      - 1
      - 0.4251968562602997
      - 0
      - 0
      - 1
    - pos:
      - 53.666666666666615
      - 1
      - 0.4251968562602997
      - 1
      - 78
      - 1
    - pos:
      - 53.99166666666662
      - 1
      - 0.4251968562602997
      - 0
      - 0
      - 1
    - pos:
      - 54.666666666666615
      - 1
      - 0.4251968562602997
      - 1
      - 64
      - 1
    - pos:
      - 54.92916666666662
      - 1
      - 0.4251968562602997
      - 0
      - 0
      - 1
    - pos:
      - 54.99999999999995
      - 1
      - 0.4409448802471161
      - 1
      - 80
      - 1
    - pos:
      - 55.28749999999995
      - 1
      - 0.4409448802471161
      - 0
      - 0
      - 1
    - pos:
      - 55.333333333333286
      - 1
      - 0.4251968562602997
      - 1
      - 71
      - 1
    - pos:
      - 55.57291666666662
      - 1
      - 0.4251968562602997
      - 0
      - 0
      - 1
    - pos:
      - 56.66666666666662
      - 1
      - 0.4251968562602997
      - 1
      - 67
      - 1
    - pos:
      - 56.99791666666662
      - 1
      - 0.4251968562602997
      - 0
      - 0
      - 1
    - pos:
      - 57.66666666666662
      - 1
      - 0.4251968562602997
      - 1
      - 74
      - 1
    - pos:
      - 57.956249999999955
      - 1
      - 0.4251968562602997
      - 0
      - 0
      - 1
    - pos:
      - 58.66666666666662
      - 1
      - 0.4251968562602997
      - 1
      - 76
      - 1
    - pos:
      - 59.00208333333329
      - 1
      - 0.4251968562602997
      - 0
      - 0
      - 1
    - pos:
      - 59.66666666666662
      - 1
      - 0.4251968562602997
      - 1
      - 73
      - 1
    - pos:
      - 59.991666666666625
      - 1
      - 0.4251968562602997
      - 0
      - 0
      - 1
    - pos:
      - 60.66666666666662
      - 1
      - 0.4251968562602997
      - 1
      - 81
      - 1
    - pos:
      - 60.97708333333329
      - 1
      - 0.4251968562602997
      - 0
      - 0
      - 1
    - pos:
      - 61.66666666666662
      - 1
      - 0.4251968562602997
      - 1
      - 84
      - 1
    - pos:
      - 62.00624999999995
      - 1
      - 0.4251968562602997
      - 0
      - 0
      - 1
    - pos:
      - 62.66666666666662
      - 1
      - 0.4251968562602997
      - 1
      - 71
      - 1
    - pos:
      - 62.94166666666662
      - 1
      - 0.4251968562602997
      - 0
      - 0
      - 1
    - pos:
      - 62.99999999999995
      - 1
      - 0.4566929042339325
      - 1
      - 91
      - 1
    - pos:
      - 63.26874999999995
      - 1
      - 0.4566929042339325
      - 0
      - 0
      - 1
    - pos:
      - 63.33333333333328
      - 1
      - 0.4251968562602997
      - 1
      - 82
      - 1
    - pos:
      - 63.59791666666661
      - 1
      - 0.4251968562602997
      - 0
      - 0
      - 1
    - pos:
      - 63.666666666666615
      - 1
      - 0.4409448802471161
      - 1
      - 79
      - 1
    - pos:
      - 63.885416666666615
      - 1
      - 0.4409448802471161
      - 0
      - 0
      - 1
