%YAML 1.1
%TAG !u! tag:unity3d.com,2011:
--- !u!114 &11400000
MonoBehaviour:
  m_ObjectHideFlags: 0
  m_CorrespondingSourceObject: {fileID: 0}
  m_PrefabInstance: {fileID: 0}
  m_PrefabAsset: {fileID: 0}
  m_GameObject: {fileID: 0}
  m_Enabled: 1
  m_EditorHideFlags: 0
  m_Script: {fileID: 11500000, guid: bdd15de2129234cd6ab89ff661735f1f, type: 3}
  m_Name: Spiccato547motif 1
  m_EditorClassIdentifier: 
  beatPosition: 32
  beatLength: 0
  minpitch: 0.4803149700164795
  maxpitch: 0.5511810779571533
  trackNumber: 13
  cursorArrayContainer:
  - steps:
    - pos:
      - 0
      - 1
      - 0.5196850299835205
      - 1
      - 70
      - 1
    - pos:
      - 0.31875
      - 1
      - 0.5196850299835205
      - 0
      - 0
      - 1
    - pos:
      - 0.6666666666666666
      - 1
      - 0.5196850299835205
      - 1
      - 76
      - 1
    - pos:
      - 1.0395833333333333
      - 1
      - 0.5196850299835205
      - 0
      - 0
      - 1
    - pos:
      - 1.3333333333333333
      - 1
      - 0.5196850299835205
      - 1
      - 81
      - 1
    - pos:
      - 1.6875
      - 1
      - 0.5196850299835205
      - 0
      - 0
      - 1
    - pos:
      - 2
      - 1
      - 0.5196850299835205
      - 1
      - 81
      - 1
    - pos:
      - 2.275
      - 1
      - 0.5196850299835205
      - 0
      - 0
      - 1
    - pos:
      - 2.6666666666666665
      - 1
      - 0.5196850299835205
      - 1
      - 77
      - 1
    - pos:
      - 2.99375
      - 1
      - 0.5196850299835205
      - 0
      - 0
      - 1
    - pos:
      - 3
      - 1
      - 0.5118110179901123
      - 1
      - 76
      - 1
    - pos:
      - 3.28125
      - 1
      - 0.5118110179901123
      - 0
      - 0
      - 1
    - pos:
      - 3.6666666666666665
      - 1
      - 0.5118110179901123
      - 1
      - 73
      - 1
    - pos:
      - 3.9833333333333334
      - 1
      - 0.5118110179901123
      - 0
      - 0
      - 1
    - pos:
      - 4
      - 1
      - 0.4960629940032959
      - 1
      - 67
      - 1
    - pos:
      - 4.316666666666666
      - 1
      - 0.4960629940032959
      - 0
      - 0
      - 1
    - pos:
      - 4.666666666666666
      - 1
      - 0.4960629940032959
      - 1
      - 72
      - 1
    - pos:
      - 4.991666666666666
      - 1
      - 0.4960629940032959
      - 0
      - 0
      - 1
    - pos:
      - 5.333333333333333
      - 1
      - 0.4960629940032959
      - 1
      - 74
      - 1
    - pos:
      - 5.652083333333333
      - 1
      - 0.4960629940032959
      - 0
      - 0
      - 1
    - pos:
      - 5.999999999999999
      - 1
      - 0.4960629940032959
      - 1
      - 82
      - 1
    - pos:
      - 6.360416666666666
      - 1
      - 0.4960629940032959
      - 0
      - 0
      - 1
    - pos:
      - 6.666666666666666
      - 1
      - 0.4960629940032959
      - 1
      - 79
      - 1
    - pos:
      - 7.085416666666666
      - 1
      - 0.4960629940032959
      - 0
      - 0
      - 1
    - pos:
      - 7.333333333333333
      - 1
      - 0.4960629940032959
      - 1
      - 86
      - 1
    - pos:
      - 7.745833333333333
      - 1
      - 0.4960629940032959
      - 0
      - 0
      - 1
    - pos:
      - 8.666666666666666
      - 1
      - 0.5196850299835205
      - 1
      - 76
      - 1
    - pos:
      - 8.945833333333333
      - 1
      - 0.5196850299835205
      - 0
      - 0
      - 1
    - pos:
      - 9.333333333333332
      - 1
      - 0.5196850299835205
      - 1
      - 79
      - 1
    - pos:
      - 9.602083333333333
      - 1
      - 0.5196850299835205
      - 0
      - 0
      - 1
    - pos:
      - 10
      - 1
      - 0.5196850299835205
      - 1
      - 81
      - 1
    - pos:
      - 10.347916666666666
      - 1
      - 0.5196850299835205
      - 0
      - 0
      - 1
    - pos:
      - 10.666666666666666
      - 1
      - 0.5354330539703369
      - 1
      - 81
      - 1
    - pos:
      - 10.916666666666666
      - 1
      - 0.5354330539703369
      - 0
      - 0
      - 1
    - pos:
      - 11
      - 1
      - 0.5511810779571533
      - 1
      - 89
      - 1
    - pos:
      - 11.25
      - 1
      - 0.5511810779571533
      - 0
      - 0
      - 1
    - pos:
      - 11.333333333333334
      - 1
      - 0.5354330539703369
      - 1
      - 84
      - 1
    - pos:
      - 11.583333333333334
      - 1
      - 0.5354330539703369
      - 0
      - 0
      - 1
    - pos:
      - 11.666666666666668
      - 1
      - 0.4803149700164795
      - 1
      - 82
      - 1
    - pos:
      - 11.939583333333335
      - 1
      - 0.4803149700164795
      - 0
      - 0
      - 1
    - pos:
      - 12.000000000000002
      - 1
      - 0.4960629940032959
      - 1
      - 76
      - 1
    - pos:
      - 12.252083333333335
      - 1
      - 0.4960629940032959
      - 0
      - 0
      - 1
    - pos:
      - 12.666666666666668
      - 1
      - 0.4960629940032959
      - 1
      - 77
      - 1
    - pos:
      - 12.929166666666667
      - 1
      - 0.4960629940032959
      - 0
      - 0
      - 1
    - pos:
      - 13.333333333333334
      - 1
      - 0.4960629940032959
      - 1
      - 82
      - 1
    - pos:
      - 13.633333333333335
      - 1
      - 0.4960629940032959
      - 0
      - 0
      - 1
    - pos:
      - 14.000000000000002
      - 1
      - 0.4960629940032959
      - 1
      - 83
      - 1
    - pos:
      - 14.389583333333334
      - 1
      - 0.4960629940032959
      - 0
      - 0
      - 1
    - pos:
      - 14.666666666666668
      - 1
      - 0.4960629940032959
      - 1
      - 85
      - 1
    - pos:
      - 15.022916666666667
      - 1
      - 0.4960629940032959
      - 0
      - 0
      - 1
    - pos:
      - 15.333333333333334
      - 1
      - 0.4960629940032959
      - 1
      - 87
      - 1
    - pos:
      - 15.685416666666667
      - 1
      - 0.4960629940032959
      - 0
      - 0
      - 1
