%YAML 1.1
%TAG !u! tag:unity3d.com,2011:
--- !u!114 &11400000
MonoBehaviour:
  m_ObjectHideFlags: 0
  m_CorrespondingSourceObject: {fileID: 0}
  m_PrefabInstance: {fileID: 0}
  m_PrefabAsset: {fileID: 0}
  m_GameObject: {fileID: 0}
  m_Enabled: 1
  m_EditorHideFlags: 0
  m_Script: {fileID: 11500000, guid: bdd15de2129234cd6ab89ff661735f1f, type: 3}
  m_Name: Strings - Long 232Strings - Long 2 - Sparring_withInsertsandAutomation.midi
  m_EditorClassIdentifier: 
  beatPosition: 448
  beatLength: 0
  minpitch: 0.23622047901153564
  maxpitch: 0.35433071851730347
  trackNumber: 7
  cursorArrayContainer:
  - steps:
    - pos:
      - 64.00000000000001
      - 1
      - 0.25196850299835205
      - 1
      - 41
      - 1
    - pos:
      - 64.00000000000001
      - 1
      - 0.34645670652389526
      - 1
      - 37
      - 1
    - pos:
      - 71.88333333333335
      - 1
      - 0.25196850299835205
      - 0
      - 0
      - 1
    - pos:
      - 72.00000000000001
      - 1
      - 0.25984251499176025
      - 1
      - 47
      - 1
    - pos:
      - 72.00000000000001
      - 1
      - 0.35433071851730347
      - 1
      - 43
      - 1
    - pos:
      - 72.01250000000002
      - 1
      - 0.34645670652389526
      - 0
      - 0
      - 1
    - pos:
      - 76.00000000000001
      - 1
      - 0.23622047901153564
      - 1
      - 25
      - 1
    - pos:
      - 76.00000000000001
      - 1
      - 0.33070865273475647
      - 1
      - 43
      - 1
    - pos:
      - 76.04583333333335
      - 1
      - 0.25984251499176025
      - 0
      - 0
      - 1
    - pos:
      - 76.05833333333335
      - 1
      - 0.35433071851730347
      - 0
      - 0
      - 1
    - pos:
      - 80.00000000000001
      - 1
      - 0.33070865273475647
      - 0
      - 0
      - 1
    - pos:
      - 83.99791666666668
      - 1
      - 0.23622047901153564
      - 0
      - 0
      - 1
