%YAML 1.1
%TAG !u! tag:unity3d.com,2011:
--- !u!114 &11400000
MonoBehaviour:
  m_ObjectHideFlags: 0
  m_CorrespondingSourceObject: {fileID: 0}
  m_PrefabInstance: {fileID: 0}
  m_PrefabAsset: {fileID: 0}
  m_GameObject: {fileID: 0}
  m_Enabled: 1
  m_EditorHideFlags: 0
  m_Script: {fileID: 11500000, guid: bdd15de2129234cd6ab89ff661735f1f, type: 3}
  m_Name: Violins 223Violns 2 - Sparring_withInsertsandAutomation-glued
  m_EditorClassIdentifier: 
  beatPosition: 99
  beatLength: 0
  minpitch: 0.4409448802471161
  maxpitch: 0.7401574850082397
  trackNumber: 5
  cursorArrayContainer:
  - steps:
    - pos:
      - 4.914583333333347
      - 1
      - 0.4409448802471161
      - 1
      - 40
      - 1
    - pos:
      - 9.62916666666668
      - 1
      - 0.4409448802471161
      - 0
      - 0
      - 1
    - pos:
      - 17.01666666666668
      - 1
      - 0.7401574850082397
      - 1
      - 127
      - 1
    - pos:
      - 18.07291666666668
      - 1
      - 0.7401574850082397
      - 0
      - 0
      - 1
    - pos:
      - 21.01666666666668
      - 1
      - 0.6850393414497375
      - 1
      - 127
      - 1
    - pos:
      - 22.000000000000014
      - 1
      - 0.6850393414497375
      - 0
      - 0
      - 1
