%YAML 1.1
%TAG !u! tag:unity3d.com,2011:
--- !u!114 &11400000
MonoBehaviour:
  m_ObjectHideFlags: 0
  m_CorrespondingSourceObject: {fileID: 0}
  m_PrefabInstance: {fileID: 0}
  m_PrefabAsset: {fileID: 0}
  m_GameObject: {fileID: 0}
  m_Enabled: 1
  m_EditorHideFlags: 0
  m_Script: {fileID: 11500000, guid: bdd15de2129234cd6ab89ff661735f1f, type: 3}
  m_Name: Violins 220Violns 2 - Sparring_withInsertsandAutomation-glued
  m_EditorClassIdentifier: 
  beatPosition: 0
  beatLength: 0
  minpitch: 0.4409448802471161
  maxpitch: 0.4409448802471161
  trackNumber: 5
  cursorArrayContainer:
  - steps:
    - pos:
      - 7.914583333333334
      - 1
      - 0.4409448802471161
      - 1
      - 64
      - 1
    - pos:
      - 12.629166666666666
      - 1
      - 0.4409448802471161
      - 0
      - 0
      - 1
