%YAML 1.1
%TAG !u! tag:unity3d.com,2011:
--- !u!114 &11400000
MonoBehaviour:
  m_ObjectHideFlags: 0
  m_CorrespondingSourceObject: {fileID: 0}
  m_PrefabInstance: {fileID: 0}
  m_PrefabAsset: {fileID: 0}
  m_GameObject: {fileID: 0}
  m_Enabled: 1
  m_EditorHideFlags: 0
  m_Script: {fileID: 11500000, guid: fda553765b6994a13b1e6c2966bdcce8, type: 3}
  m_Name: Perpetual Separated_C
  m_EditorClassIdentifier: 
  tracks:
  - {fileID: 11400000, guid: ad5465d6fdc1eb444a2b5a68edac8505, type: 2}
  - {fileID: 11400000, guid: eea3a59cce81a6940b17eab9eb4c035d, type: 2}
  - {fileID: 11400000, guid: 5141542ae7fcc9a41bb2f91805719bcb, type: 2}
  - {fileID: 11400000, guid: 61f37f385d3a45740b62843e6d0b39eb, type: 2}
  - {fileID: 11400000, guid: e1452d6ce977927448af31da1aaffbdb, type: 2}
  - {fileID: 11400000, guid: 01ecfd8ea3845d748988b78756bc86ca, type: 2}
  - {fileID: 11400000, guid: c87e7d41a32757f47b0718b990c9cd53, type: 2}
  chords: {fileID: 0}
  startBeat: 32
  stopBeat: 48
  id: 3
  setupMessages:
  - data: 2f736c742f656e67000000002c736966730000007363616c650000000000000041000000446f7269616e0000
  instruments:
  - Perc Drums
  - 'Violins '
  - Spicatto
  - Spiccato
