%YAML 1.1
%TAG !u! tag:unity3d.com,2011:
--- !u!114 &11400000
MonoBehaviour:
  m_ObjectHideFlags: 0
  m_CorrespondingSourceObject: {fileID: 0}
  m_PrefabInstance: {fileID: 0}
  m_PrefabAsset: {fileID: 0}
  m_GameObject: {fileID: 0}
  m_Enabled: 1
  m_EditorHideFlags: 0
  m_Script: {fileID: 11500000, guid: fda553765b6994a13b1e6c2966bdcce8, type: 3}
  m_Name: S_Perpetual Separated_1
  m_EditorClassIdentifier: 
  tracks:
  - {fileID: 11400000, guid: 0f518c60b04d2ba4daa4e8cf28040249, type: 2}
  chords: {fileID: 0}
  startBeat: 192
  stopBeat: 196
  id: 7
  setupMessages:
  - data: 2f736c742f656e67000000002c736966730000007363616c650000000000000041000000446f7269616e0000
  instruments:
  - Perc Stingers
