%YAML 1.1
%TAG !u! tag:unity3d.com,2011:
--- !u!1045 &1
EditorBuildSettings:
  m_ObjectHideFlags: 0
  serializedVersion: 2
  m_Scenes:
  - enabled: 0
    path: Assets/Scenes/Game.unity
    guid: ac6637b348fb57246a3352cbd7eed8de
  - enabled: 0
    path: Assets/Scenes/Core.unity
    guid: 42b7f85381e6ea643aa11dd89bc2fca2
  - enabled: 1
    path: Assets/Scenes/Music.unity
    guid: fddefb129f5c1e841a02ba72c4b8b3be
  m_configObjects: {}
